…
    ##    country          HomicidesIn2007 
    ##  Length:221         Min.   : 0.000  
    ##  Class :character   1st Qu.: 1.382  
    ##  Mode  :character   Median : 3.426  
    ##                     Mean   : 8.535  
    ##                     3rd Qu.: 8.465  
    ##                     Max.   :66.128  
    ##                     NA's   :66

``` r
HomicideData2007 %>%
arrange(desc(HomicidesIn2007))
```

    ## # A tibble: 221 x 2
    ##                               country HomicidesIn2007
    ##                                 <chr>           <dbl>
    ##  1                               Iraq        66.12829
    ##  2                            Jamaica        58.56676
    ##  3                        El Salvador        58.41561
    ##  4                           Honduras        50.29622
    ##  5 Venezuela (Bolivarian Republic of)        47.54495
    ##  6                            Lesotho        45.76469
    ##  7                          Guatemala        41.89850
    ##  8       United States Virgin Islands        40.12467
    ##  9                       South Africa        37.20199
    ## 10                           Colombia        34.75633
    ## # ... with 211 more rows
…
