…
Next we can create a quadratic term should we later wish to run a quadratic regression.

``` r
gapminder$year_Q <- gapminder$year_0*gapminder$year_0
```

Before going further though, lets view that the variables we created. At the same time we can take note that the gapminder data frame may be a bit difficult to sift through.

``` r
gapminder
```

    ## # A tibble: 1,704 x 8
    ##        country continent  year lifeExp      pop gdpPercap year_0 year_Q
    ##         <fctr>    <fctr> <int>   <dbl>    <int>     <dbl>  <dbl>  <dbl>
    ##  1 Afghanistan      Asia  1952  28.801  8425333  779.4453      0      0
    ##  2 Afghanistan      Asia  1957  30.332  9240934  820.8530      5     25
    ##  3 Afghanistan      Asia  1962  31.997 10267083  853.1007     10    100
    ##  4 Afghanistan      Asia  1967  34.020 11537966  836.1971     15    225
    ##  5 Afghanistan      Asia  1972  36.088 13079460  739.9811     20    400
    ##  6 Afghanistan      Asia  1977  38.438 14880372  786.1134     25    625
    ##  7 Afghanistan      Asia  1982  39.854 12881816  978.0114     30    900
    ##  8 Afghanistan      Asia  1987  40.822 13867957  852.3959     35   1225
    ##  9 Afghanistan      Asia  1992  41.674 16317921  649.3414     40   1600
    ## 10 Afghanistan      Asia  1997  41.763 22227415  635.3414     45   2025
    ## # ... with 1,694 more rows

There are for instance nearly 1,700 rows of data, many of which present the same country at different time points. Nesting the data might help us to create something more compact.

``` r
gap_nested <- gapminder %>%
    group_by(country, continent) %>% 
    nest()

gap_nested
```

    ## # A tibble: 142 x 3
    ##        country continent              data
    ##         <fctr>    <fctr>            <list>
    ##  1 Afghanistan      Asia <tibble [12 x 6]>
    ##  2     Albania    Europe <tibble [12 x 6]>
    ##  3     Algeria    Africa <tibble [12 x 6]>
    ##  4      Angola    Africa <tibble [12 x 6]>
    ##  5   Argentina  Americas <tibble [12 x 6]>
    ##  6   Australia   Oceania <tibble [12 x 6]>
    ##  7     Austria    Europe <tibble [12 x 6]>
    ##  8     Bahrain      Asia <tibble [12 x 6]>
    ##  9  Bangladesh      Asia <tibble [12 x 6]>
    ## 10     Belgium    Europe <tibble [12 x 6]>
    ## # ... with 132 more rows
…
Going a step further we can apply this function to every country. We will store this information in a variable by using the *mutate* function. This new variable will be called *fit* and will consist of the *data* variable being run through the *Quad\_Reg* function.

``` r
(gap_nested <- gap_nested %>% 
    mutate(fit = map(data, Quad_Reg)))
```

    ## # A tibble: 142 x 4
    ##        country continent              data      fit
    ##         <fctr>    <fctr>            <list>   <list>
    ##  1 Afghanistan      Asia <tibble [12 x 6]> <S3: lm>
    ##  2     Albania    Europe <tibble [12 x 6]> <S3: lm>
    ##  3     Algeria    Africa <tibble [12 x 6]> <S3: lm>
    ##  4      Angola    Africa <tibble [12 x 6]> <S3: lm>
    ##  5   Argentina  Americas <tibble [12 x 6]> <S3: lm>
    ##  6   Australia   Oceania <tibble [12 x 6]> <S3: lm>
    ##  7     Austria    Europe <tibble [12 x 6]> <S3: lm>
    ##  8     Bahrain      Asia <tibble [12 x 6]> <S3: lm>
    ##  9  Bangladesh      Asia <tibble [12 x 6]> <S3: lm>
    ## 10     Belgium    Europe <tibble [12 x 6]> <S3: lm>
    ## # ... with 132 more rows
…
    ##          term     estimate   std.error statistic      p.value
    ## 1 (Intercept) 64.997760989 0.308491103 210.69574 6.217401e-18
    ## 2      year_0  0.458537912 0.026075830  17.58479 2.816145e-08
    ## 3      year_Q -0.003229221 0.000456815  -7.06899 5.862524e-05

Rather than unpacking each country individually however, we can unpack all model results at once. To do so we will create a new variable called *results* in which each countries *fit* variable is run through the *tidy* function.

``` r
(gap_nested <- gap_nested %>% 
    mutate(results = map(fit, tidy)))
```

    ## # A tibble: 142 x 5
    ##        country continent              data      fit              results
    ##         <fctr>    <fctr>            <list>   <list>               <list>
    ##  1 Afghanistan      Asia <tibble [12 x 6]> <S3: lm> <data.frame [3 x 5]>
    ##  2     Albania    Europe <tibble [12 x 6]> <S3: lm> <data.frame [3 x 5]>
    ##  3     Algeria    Africa <tibble [12 x 6]> <S3: lm> <data.frame [3 x 5]>
    ##  4      Angola    Africa <tibble [12 x 6]> <S3: lm> <data.frame [3 x 5]>
    ##  5   Argentina  Americas <tibble [12 x 6]> <S3: lm> <data.frame [3 x 5]>
    ##  6   Australia   Oceania <tibble [12 x 6]> <S3: lm> <data.frame [3 x 5]>
    ##  7     Austria    Europe <tibble [12 x 6]> <S3: lm> <data.frame [3 x 5]>
    ##  8     Bahrain      Asia <tibble [12 x 6]> <S3: lm> <data.frame [3 x 5]>
    ##  9  Bangladesh      Asia <tibble [12 x 6]> <S3: lm> <data.frame [3 x 5]>
    ## 10     Belgium    Europe <tibble [12 x 6]> <S3: lm> <data.frame [3 x 5]>
    ## # ... with 132 more rows

Then we can unnest this data frame.

``` r
(gap_coefs <- gap_nested %>% 
    select(continent, country, results) %>% 
    unnest(results))
```

    ## # A tibble: 426 x 7
    ##    continent     country        term     estimate    std.error statistic
    ##       <fctr>      <fctr>       <chr>        <dbl>        <dbl>     <dbl>
    ##  1      Asia Afghanistan (Intercept) 28.178686813 0.4330129763 65.075848
    ##  2      Asia Afghanistan      year_0  0.482761638 0.0366012911 13.189743
    ##  3      Asia Afghanistan      year_Q -0.003771508 0.0006412076 -5.881884
    ##  4    Europe     Albania (Intercept) 56.853134615 1.0134515113 56.098525
    ##  5    Europe     Albania      year_0  0.619802448 0.0856640234  7.235271
    ##  6    Europe     Albania      year_Q -0.005183986 0.0015007236 -3.454324
    ##  7    Africa     Algeria (Intercept) 41.942236264 0.7537233613 55.646725
    ##  8    Africa     Algeria      year_0  0.741208292 0.0637099802 11.634100
    ##  9    Africa     Algeria      year_Q -0.003125974 0.0011161170 -2.800758
    ## 10    Africa      Angola (Intercept) 30.117670330 0.4785540412 62.934732
    ## # ... with 416 more rows, and 1 more variables: p.value <dbl>

And the resulting data frame has every countries linear slope, quadratic slope and intercept under the *estimate* variable, as indexed by the *term* variable.

``` r
gap_coefs
```

    ## # A tibble: 426 x 7
    ##    continent     country        term     estimate    std.error statistic
    ##       <fctr>      <fctr>       <chr>        <dbl>        <dbl>     <dbl>
    ##  1      Asia Afghanistan (Intercept) 28.178686813 0.4330129763 65.075848
    ##  2      Asia Afghanistan      year_0  0.482761638 0.0366012911 13.189743
    ##  3      Asia Afghanistan      year_Q -0.003771508 0.0006412076 -5.881884
    ##  4    Europe     Albania (Intercept) 56.853134615 1.0134515113 56.098525
    ##  5    Europe     Albania      year_0  0.619802448 0.0856640234  7.235271
    ##  6    Europe     Albania      year_Q -0.005183986 0.0015007236 -3.454324
    ##  7    Africa     Algeria (Intercept) 41.942236264 0.7537233613 55.646725
    ##  8    Africa     Algeria      year_0  0.741208292 0.0637099802 11.634100
    ##  9    Africa     Algeria      year_Q -0.003125974 0.0011161170 -2.800758
    ## 10    Africa      Angola (Intercept) 30.117670330 0.4785540412 62.934732
    ## # ... with 416 more rows, and 1 more variables: p.value <dbl>

If desired, we can unpack this further through the use of *spread*

``` r
(gap_ests <- gap_coefs %>% 
    select(continent:estimate) %>% 
    spread(key = term, value = estimate))
```

    ## # A tibble: 142 x 5
    ##    continent                  country `(Intercept)`    year_0       year_Q
    ##  *    <fctr>                   <fctr>         <dbl>     <dbl>        <dbl>
    ##  1    Africa                  Algeria      41.94224 0.7412083 -0.003125974
    ##  2    Africa                   Angola      30.11767 0.4504179 -0.004383237
    ##  3    Africa                    Benin      37.86994 0.5404620 -0.003749620
    ##  4    Africa                 Botswana      44.91197 1.0227257 -0.017491948
    ##  5    Africa             Burkina Faso      31.54945 0.7402045 -0.006840539
    ##  6    Africa                  Burundi      39.26621 0.3116255 -0.002863477
    ##  7    Africa                 Cameroon      36.75949 0.7889436 -0.009796304
    ##  8    Africa Central African Republic      33.86187 0.7776226 -0.010794855
    ##  9    Africa                     Chad      37.15506 0.5717611 -0.005791219
    ## 10    Africa                  Comoros      40.64126 0.3729596  0.001407842
    ## # ... with 132 more rows
…
Visible from here quadratic values appear somewhat leptokurtic in distribution shape whereas whereas linear values are more evenly distributed. We can identify through our data frame which countries had a particularly curvilinear relationship for study years and life expectancy. We can do this by sorting quadratic slopes in ascending order.

``` r
gap_ests %>%
arrange((YearQuadraticSlope))
```

    ## # A tibble: 142 x 5
    ##    Continent          Country Intercept YearLinearSlope YearQuadraticSlope
    ##       <fctr>           <fctr>     <dbl>           <dbl>              <dbl>
    ##  1    Africa         Zimbabwe  45.69741       1.0498395        -0.02077928
    ##  2    Africa        Swaziland  37.49494       1.1622248        -0.01940273
    ##  3    Africa         Botswana  44.91197       1.0227257        -0.01749195
    ##  4    Africa          Lesotho  39.63623       1.0247014        -0.01689338
    ##  5    Africa          Namibia  39.99334       1.0880834        -0.01558036
    ##  6    Africa     South Africa  42.92082       0.9396144        -0.01400827
    ##  7    Africa            Kenya  40.72899       0.9592736        -0.01368665
    ##  8    Africa           Zambia  41.59716       0.6668781        -0.01322370
    ##  9      Asia Korea, Dem. Rep.  49.02373       1.0222518        -0.01283319
    ## 10      Asia             Iraq  44.41139       0.9194594        -0.01244089
    ## # ... with 132 more rows
…
When a quadratic term was introduced however the fit of all models substantially improved. All models were now significant and as were all predictors for each model. All models also saw a sharp increase in multiple r-squared.

Lastly lets consider which countries had the largest standard error and how life expectancy in these countries changed over time.

``` r
gap_coefs %>%
arrange(desc(std.error))
```

    ## # A tibble: 426 x 7
    ##    continent      country        term estimate std.error statistic
    ##       <fctr>       <fctr>       <chr>    <dbl>     <dbl>     <dbl>
    ##  1    Africa       Rwanda (Intercept) 42.88723  5.110949  8.391246
    ##  2      Asia     Cambodia (Intercept) 40.11066  4.116343  9.744247
    ##  3    Africa     Zimbabwe (Intercept) 45.69741  3.107870 14.703771
    ##  4    Africa    Swaziland (Intercept) 37.49494  2.781932 13.478021
    ##  5    Africa     Botswana (Intercept) 44.91197  2.681356 16.749723
    ##  6    Africa      Lesotho (Intercept) 39.63623  2.632169 15.058392
    ##  7      Asia        China (Intercept) 43.24529  2.298321 18.816037
    ##  8    Africa South Africa (Intercept) 42.92082  1.931239 22.224499
    ##  9    Africa       Zambia (Intercept) 41.59716  1.896735 21.930929
    ## 10    Africa        Gabon (Intercept) 33.73499  1.860273 18.134431
    ## # ... with 416 more rows, and 1 more variables: p.value <dbl>
…
